192.168.0.0/24
192.168.1.0/24
192.168.2.0/24
192.168.3.0/24
192.168.4.0/24
192.168.5.0/24
192.168.6.0/24
192.168.7.0/24
192.168.8.0/24
192.168.9.0/24
192.168.10.0/24
192.168.11.0/24
192.168.12.0/24
192.168.13.0/24
192.168.14.0/24
192.168.15.0/24
192.168.16.0/24

192.168.0.0/16

172.16.0.0/12

10.0.0.0/8

