./sender -v 2+24+25+27 -f example.dat 192.168.0.2

time,ca_state,rtt,rttvar,snd_cwnd
0.000019,0,40000,20000,2
0.000388,0,40000,20000,2
0.000446,0,40000,20000,2
0.000496,0,40000,20000,2
0.000545,0,40000,20000,2
0.000593,0,40000,20000,2
0.000642,0,40000,20000,2
[...]
6.892922,0,191250,17500,8
6.892970,0,191250,17500,8
6.893016,0,191250,17500,8
6.893062,0,191250,17500,8
7.083012,0,193750,12500,9
7.083100,0,193750,12500,9
7.083148,0,193750,12500,9
7.083194,0,193750,12500,9