\relax 
\@writefile{toc}{\contentsline {chapter}{\numberline {1}Introduction}{5}}
\@writefile{lof}{\addvspace {10\p@ }}
\@writefile{lot}{\addvspace {10\p@ }}
\citation{nk1}
\@writefile{toc}{\contentsline {chapter}{\numberline {2}Background material}{7}}
\@writefile{lof}{\addvspace {10\p@ }}
\@writefile{lot}{\addvspace {10\p@ }}
\@writefile{toc}{\contentsline {section}{\numberline {2.1}Netkit}{7}}
\citation{wireshark}
\@writefile{toc}{\contentsline {section}{\numberline {2.2}Wireshark}{8}}
\@writefile{lof}{\contentsline {figure}{\numberline {2.1}{\ignorespaces Schema of Netkit operation}}{9}}
\newlabel{fig:netkit_schema}{{2.1}{9}}
\citation{ank1}
\citation{yed}
\citation{graphml}
\@writefile{toc}{\contentsline {chapter}{\numberline {3}Related work}{10}}
\@writefile{lof}{\addvspace {10\p@ }}
\@writefile{lot}{\addvspace {10\p@ }}
\@writefile{toc}{\contentsline {section}{\numberline {3.1}AutoNetkit}{10}}
\citation{pfeiffer}
\citation{click1}
\citation{click4}
\@writefile{toc}{\contentsline {section}{\numberline {3.2}tcpsnoop}{11}}
\@writefile{toc}{\contentsline {section}{\numberline {3.3}Click}{11}}
\citation{click4}
\@writefile{lof}{\contentsline {figure}{\numberline {3.1}{\ignorespaces Representation of a Click element}}{12}}
\newlabel{fig:click_element}{{3.1}{12}}
\@writefile{lof}{\contentsline {figure}{\numberline {3.2}{\ignorespaces Representation of a small Click configuration}}{12}}
\newlabel{fig:click_repr}{{3.2}{12}}
\newlabel{click_pic}{{2}{12}}
\citation{click4}
\@writefile{lof}{\contentsline {figure}{\numberline {3.3}{\ignorespaces Representation of a queue element in a Click configuration with push and pull processings}}{13}}
\newlabel{fig:click_timeline}{{3.3}{13}}
\newlabel{lst:click_repr_text}{{3.1}{13}}
\@writefile{lol}{\contentsline {lstlisting}{\numberline {3.1}Click configuration language sample corresponding to Figure 3.2\hbox {}}{13}}
\@writefile{toc}{\contentsline {chapter}{\numberline {4}Solution}{15}}
\@writefile{lof}{\addvspace {10\p@ }}
\@writefile{lot}{\addvspace {10\p@ }}
\@writefile{toc}{\contentsline {section}{\numberline {4.1}Microscopic TCP behavior}{16}}
\@writefile{toc}{\contentsline {subsection}{\numberline {4.1.1}Managing a queue}{16}}
\@writefile{toc}{\contentsline {subsection}{\numberline {4.1.2}Click modification}{16}}
\citation{click3}
\@writefile{lof}{\contentsline {figure}{\numberline {4.1}{\ignorespaces Click IP router configuration diagram}}{18}}
\newlabel{fig:click_ip}{{4.1}{18}}
\@writefile{lof}{\contentsline {figure}{\numberline {4.2}{\ignorespaces Modified part of the Click IP router configuration diagram}}{19}}
\newlabel{fig:click_ip_custom}{{4.2}{19}}
\@writefile{toc}{\contentsline {subsection}{\numberline {4.1.3}Click compilation}{19}}
\citation{click3}
\@writefile{toc}{\contentsline {subsection}{\numberline {4.1.4}Click communication}{20}}
\@writefile{toc}{\contentsline {subsection}{\numberline {4.1.5}Traffic observation}{20}}
\@writefile{lof}{\contentsline {figure}{\numberline {4.3}{\ignorespaces Click launch and queue manager interface}}{21}}
\newlabel{fig:click_man1}{{4.3}{21}}
\@writefile{toc}{\contentsline {subsection}{\numberline {4.1.6}Automated launch}{22}}
\@writefile{lof}{\contentsline {figure}{\numberline {4.4}{\ignorespaces Example of Wireshark capture over Netkit}}{23}}
\newlabel{fig:ws_cap}{{4.4}{23}}
\newlabel{lst:usage_easychange}{{4.1}{23}}
\@writefile{lol}{\contentsline {lstlisting}{\numberline {4.1}Usage of our easychange tool}{23}}
\citation{graphml}
\@writefile{toc}{\contentsline {section}{\numberline {4.2}Macroscopic TCP behavior}{24}}
\@writefile{toc}{\contentsline {subsection}{\numberline {4.2.1}Topologies with links of different bandwidths}{24}}
\citation{nx}
\@writefile{toc}{\contentsline {subsection}{\numberline {4.2.2}AutoNetkit architecture}{25}}
\@writefile{toc}{\contentsline {subsection}{\numberline {4.2.3}AutoNetkit modification for bandwidth}{25}}
\@writefile{toc}{\contentsline {subsection}{\numberline {4.2.4}Traffic shaping}{25}}
\newlabel{lst:traffic_shaping}{{4.2}{26}}
\@writefile{lol}{\contentsline {lstlisting}{\numberline {4.2}Traffic shaping in Netkit lab template used by AutoNetkit}{26}}
\@writefile{toc}{\contentsline {subsection}{\numberline {4.2.5}Network variables}{26}}
\@writefile{toc}{\contentsline {subsection}{\numberline {4.2.6}Traffic generation}{27}}
\@writefile{toc}{\contentsline {subsection}{\numberline {4.2.7}The TCP\_INFO option}{27}}
\newlabel{lst:tcp_info}{{4.3}{28}}
\@writefile{lol}{\contentsline {lstlisting}{\numberline {4.3}Definition of \texttt  {struct tcp\_info} in \texttt  {/include/linux/tcp.h}}{28}}
\citation{castate}
\citation{pfeiffer}
\citation{livegraph}
\@writefile{toc}{\contentsline {subsection}{\numberline {4.2.8}Graph representation}{31}}
\@writefile{toc}{\contentsline {subsection}{\numberline {4.2.9}LiveGraph presentation}{31}}
\@writefile{lof}{\contentsline {figure}{\numberline {4.5}{\ignorespaces LiveGraph : plot window}}{32}}
\newlabel{fig:lg_plot}{{4.5}{32}}
\@writefile{toc}{\contentsline {subsection}{\numberline {4.2.10}LiveGraph exploitation}{32}}
\@writefile{lof}{\contentsline {figure}{\numberline {4.6}{\ignorespaces LiveGraph : data file settings window}}{33}}
\newlabel{fig:lg_file}{{4.6}{33}}
\newlabel{lst:lgdfs}{{4.4}{33}}
\@writefile{lol}{\contentsline {lstlisting}{\numberline {4.4}LiveGraph data file settings (*.lgdfs)}{33}}
\@writefile{lof}{\contentsline {figure}{\numberline {4.7}{\ignorespaces LiveGraph : graph settings window}}{34}}
\newlabel{fig:lg_graphsettings}{{4.7}{34}}
\newlabel{lst:usage_receiver}{{4.5}{34}}
\@writefile{lol}{\contentsline {lstlisting}{\numberline {4.5}Usage of receiver}{34}}
\@writefile{lof}{\contentsline {figure}{\numberline {4.8}{\ignorespaces LiveGraph : data series settings window}}{35}}
\newlabel{fig:lg_series}{{4.8}{35}}
\newlabel{lst:onesender_sample}{{4.6}{35}}
\@writefile{lol}{\contentsline {lstlisting}{\numberline {4.6}Execution sample of sender with recorded data}{35}}
\@writefile{toc}{\contentsline {subsection}{\numberline {4.2.11}Some interesting examples}{36}}
\@writefile{lof}{\contentsline {figure}{\numberline {4.9}{\ignorespaces Evolution of the sending congestion window in parallel with the CA state}}{36}}
\newlabel{fig:snd_cwnd}{{4.9}{36}}
\@writefile{toc}{\contentsline {section}{\numberline {4.3}Exams-like exercises generator : ``exagen''}{37}}
\@writefile{toc}{\contentsline {subsection}{\numberline {4.3.1}Present situation}{37}}
\@writefile{toc}{\contentsline {subsection}{\numberline {4.3.2}Idea}{37}}
\@writefile{toc}{\contentsline {subsection}{\numberline {4.3.3}Analysis}{37}}
\@writefile{toc}{\contentsline {subsection}{\numberline {4.3.4}Workflow}{38}}
\@writefile{lof}{\contentsline {figure}{\numberline {4.10}{\ignorespaces Generation of erroneous network exercise workflow}}{39}}
\newlabel{fig:exagen_workflow}{{4.10}{39}}
\@writefile{toc}{\contentsline {subsection}{\numberline {4.3.5}Modules}{40}}
\@writefile{toc}{\contentsline {subsubsection}{\numberline {4.3.5.1}create\_topo}{40}}
\@writefile{toc}{\contentsline {subsubsection}{\numberline {4.3.5.2}gengraphml}{40}}
\@writefile{toc}{\contentsline {subsubsection}{\numberline {4.3.5.3}config\_ip}{40}}
\@writefile{lof}{\contentsline {figure}{\numberline {4.11}{\ignorespaces Architure of the application ``exagen''}}{41}}
\newlabel{fig:exagen_architecture}{{4.11}{41}}
\@writefile{toc}{\contentsline {subsubsection}{\numberline {4.3.5.4}create\_lab}{42}}
\@writefile{toc}{\contentsline {subsubsection}{\numberline {4.3.5.5}add\_errors}{42}}
\@writefile{toc}{\contentsline {subsubsection}{\numberline {4.3.5.6}genstatement}{43}}
\@writefile{toc}{\contentsline {subsubsection}{\numberline {4.3.5.7}Others}{43}}
\@writefile{toc}{\contentsline {subsection}{\numberline {4.3.6}Checks}{43}}
\@writefile{toc}{\contentsline {subsection}{\numberline {4.3.7}Packaging}{44}}
\@writefile{toc}{\contentsline {subsection}{\numberline {4.3.8}Summary}{44}}
\@writefile{toc}{\contentsline {subsection}{\numberline {4.3.9}Future work}{44}}
\@writefile{toc}{\contentsline {subsection}{\numberline {4.3.10}Threats}{44}}
\@writefile{toc}{\contentsline {chapter}{\numberline {5}Future work}{46}}
\@writefile{lof}{\addvspace {10\p@ }}
\@writefile{lot}{\addvspace {10\p@ }}
\@writefile{toc}{\contentsline {chapter}{\numberline {6}Conclusion}{48}}
\@writefile{lof}{\addvspace {10\p@ }}
\@writefile{lot}{\addvspace {10\p@ }}
\citation{*}
\bibstyle{plain}
\bibdata{Literature}
\@writefile{toc}{\vspace *{\baselineskip }}
\@writefile{toc}{\contentsline {chapter}{Bibliography}{49}}
\bibcite{nsem}{1}
\bibcite{cnp3}{2}
\bibcite{reseauxtp}{3}
\bibcite{icons}{4}
\bibcite{hon}{5}
\bibcite{ar}{6}
\bibcite{tcpipi}{7}
\bibcite{v4tov6}{8}
\bibcite{ank3}{9}
\bibcite{click3}{10}
\bibcite{click2}{11}
\bibcite{cntd}{12}
\bibcite{nx}{13}
\bibcite{ipaddressintro}{14}
\bibcite{click4}{15}
\bibcite{multitail}{16}
\bibcite{ank2}{17}
\bibcite{cdaemon}{18}
\bibcite{ank1}{19}
\bibcite{graphml}{20}
\bibcite{nk1}{21}
\bibcite{click1}{22}
\bibcite{livegraph}{23}
\bibcite{pfeiffer}{24}
\bibcite{pfeiffer2}{25}
\bibcite{pythonguide}{26}
\bibcite{testbandwidth}{27}
\bibcite{nk4}{28}
\bibcite{nk2}{29}
\bibcite{nk3}{30}
\bibcite{ppa}{31}
\bibcite{lncook}{32}
\bibcite{castate}{33}
\bibcite{valgrind}{34}
\bibcite{apunixenv}{35}
\bibcite{wireshark}{36}
\bibcite{yed}{37}
\@writefile{toc}{\contentsline {chapter}{\numberline {A}Listing of sources}{53}}
\@writefile{lof}{\addvspace {10\p@ }}
\@writefile{lot}{\addvspace {10\p@ }}
